vivado_project/zynq_pl_acc_demo/.Xil/Vivado-10872-HoppingKnight/hw_ila_data_1/zip_work/waveform.vcd
$date
        2023-Apr-14 08:50:21
$end
$version
        Vivado v2019.1 (64-bit)
$end
$timescale
        1ps
$end
$scope module dut $end
$var reg 1 " Conv_Acc_inst/bram_mac_inst/rden $end
$var reg 8 # Conv_Acc_inst/bram_mac_inst/addrb [7:0] $end
$var reg 8 + Conv_Acc_inst/bram_mac_inst/addr_max [7:0] $end
$var reg 1 3 _TRIGGER $end
$var reg 1 4 _WINDOW $end
$var reg 1 5 _GAP $end
$upscope $end
$enddefinitions $end
#0
$dumpvars
0"
b0 #
b0 +
03
14
05
$end
#512
1"
13
#513
b1 #
#514
b10 #
#515
b11 #
#516
b100 #
#517
b101 #
#518
b110 #
#519
b111 #
#520
b1000 #
#521
b1001 #
#522
b1010 #
#523
b1011 #
#524
b1100 #
#525
b1101 #
#526
b1110 #
#527
b1111 #
#528
b10000 #
#529
b10001 #
#530
b10010 #
#531
b10011 #
#532
b10100 #
#533
b10101 #
#534
b10110 #
#535
b10111 #
#536
b11000 #
#537
b11001 #
#538
b11010 #
#539
b11011 #
#540
b11100 #
#541
b11101 #
#542
b11110 #
#543
b11111 #
#544
b100000 #
#545
b100001 #
#546
b100010 #
#547
b100011 #
#548
b100100 #
#549
b100101 #
#550
b100110 #
#551
b100111 #
#552
b101000 #
#553
b101001 #
#554
b101010 #
#555
b101011 #
#556
b101100 #
#557
b101101 #
#558
b101110 #
#559
b101111 #
#560
b110000 #
#561
b110001 #
#562
b110010 #
#563
b110011 #
#564
b110100 #
#565
b110101 #
#566
b110110 #
#567
b110111 #
#568
b111000 #
#569
b111001 #
#570
b111010 #
#571
b111011 #
#572
b111100 #
#573
b111101 #
#574
b111110 #
#575
b111111 #
#576
b1000000 #
#577
b1000001 #
#578
b1000010 #
#579
b1000011 #
#580
b1000100 #
#581
b1000101 #
#582
b1000110 #
#583
b1000111 #
#584
b1001000 #
#585
b1001001 #
#586
b1001010 #
#587
b1001011 #
#588
b1001100 #
#589
b1001101 #
#590
b1001110 #
#591
b1001111 #
#592
b1010000 #
#593
b1010001 #
#594
b1010010 #
#595
b1010011 #
#596
b1010100 #
#597
b1010101 #
#598
b1010110 #
#599
b1010111 #
#600
b1011000 #
#601
b1011001 #
#602
b1011010 #
#603
b1011011 #
#604
b1011100 #
#605
b1011101 #
#606
b1011110 #
#607
b1011111 #
#608
b1100000 #
#609
b1100001 #
#610
b1100010 #
#611
b1100011 #
#612
b1100100 #
#613
b1100101 #
#614
b1100110 #
#615
b1100111 #
#616
b1101000 #
#617
b1101001 #
#618
b1101010 #
#619
b1101011 #
#620
b1101100 #
#621
b1101101 #
#622
b1101110 #
#623
b1101111 #
#624
b1110000 #
#625
b1110001 #
#626
b1110010 #
#627
b1110011 #
#628
b1110100 #
#629
b1110101 #
#630
b1110110 #
#631
b1110111 #
#632
b1111000 #
#633
b1111001 #
#634
b1111010 #
#635
b1111011 #
#636
b1111100 #
#637
b1111101 #
#638
b1111110 #
#639
b1111111 #
#640
b10000000 #
#641
b10000001 #
#642
b10000010 #
#643
b10000011 #
#644
b10000100 #
#645
b10000101 #
#646
b10000110 #
#647
b10000111 #
#648
b10001000 #
#649
b10001001 #
#650
b10001010 #
#651
b10001011 #
#652
b10001100 #
#653
b10001101 #
#654
b10001110 #
#655
b10001111 #
#656
b10010000 #
#657
b10010001 #
#658
b10010010 #
#659
b10010011 #
#660
b10010100 #
#661
b10010101 #
#662
b10010110 #
#663
b10010111 #
#664
b10011000 #
#665
b10011001 #
#666
b10011010 #
#667
b10011011 #
#668
b10011100 #
#669
b10011101 #
#670
b10011110 #
#671
b10011111 #
#672
b10100000 #
#673
b10100001 #
#674
b10100010 #
#675
b10100011 #
#676
b10100100 #
#677
b10100101 #
#678
b10100110 #
#679
b10100111 #
#680
b10101000 #
#681
b10101001 #
#682
b10101010 #
#683
b10101011 #
#684
b10101100 #
#685
b10101101 #
#686
b10101110 #
#687
b10101111 #
#688
b10110000 #
#689
b10110001 #
#690
b10110010 #
#691
b10110011 #
#692
b10110100 #
#693
b10110101 #
#694
b10110110 #
#695
b10110111 #
#696
b10111000 #
#697
b10111001 #
#698
b10111010 #
#699
b10111011 #
#700
b10111100 #
#701
b10111101 #
#702
b10111110 #
#703
b10111111 #
#704
b11000000 #
#705
b11000001 #
#706
b11000010 #
#707
b11000011 #
#708
b11000100 #
#709
b11000101 #
#710
b11000110 #
#711
b11000111 #
#712
b11001000 #
#713
b11001001 #
#714
b11001010 #
#715
b11001011 #
#716
b11001100 #
#717
b11001101 #
#718
b11001110 #
#719
b11001111 #
#720
b11010000 #
#721
b11010001 #
#722
b11010010 #
#723
b11010011 #
#724
b11010100 #
#725
b11010101 #
#726
b11010110 #
#727
b11010111 #
#728
b11011000 #
#729
b11011001 #
#730
b11011010 #
#731
b11011011 #
#732
b11011100 #
#733
b11011101 #
#734
b11011110 #
#735
b11011111 #
#736
b11100000 #
#737
b11100001 #
#738
b11100010 #
#739
b11100011 #
#740
b11100100 #
#741
b11100101 #
#742
b11100110 #
#743
b11100111 #
#744
b11101000 #
#745
b11101001 #
#746
b11101010 #
#747
b11101011 #
#748
b11101100 #
#749
b11101101 #
#750
b11101110 #
#751
b11101111 #
#752
b11110000 #
#753
b11110001 #
#754
b11110010 #
#755
b11110011 #
#756
b11110100 #
#757
b11110101 #
#758
b11110110 #
#759
b11110111 #
#760
b11111000 #
#761
b11111001 #
#762
b11111010 #
#763
b11111011 #
#764
b11111100 #
#765
b11111101 #
#766
b11111110 #
#767
b11111111 #
#768
b0 #
#769
b1 #
#770
b10 #
#771
b11 #
#772
b100 #
#773
b101 #
#774
b110 #
#775
b111 #
#776
b1000 #
#777
b1001 #
#778
b1010 #
#779
b1011 #
#780
b1100 #
#781
b1101 #
#782
b1110 #
#783
b1111 #
#784
b10000 #
#785
b10001 #
#786
b10010 #
#787
b10011 #
#788
b10100 #
#789
b10101 #
#790
b10110 #
#791
b10111 #
#792
b11000 #
#793
b11001 #
#794
b11010 #
#795
b11011 #
#796
b11100 #
#797
b11101 #
#798
b11110 #
#799
b11111 #
#800
b100000 #
#801
b100001 #
#802
b100010 #
#803
b100011 #
#804
b100100 #
#805
b100101 #
#806
b100110 #
#807
b100111 #
#808
b101000 #
#809
b101001 #
#810
b101010 #
#811
b101011 #
#812
b101100 #
#813
b101101 #
#814
b101110 #
#815
b101111 #
#816
b110000 #
#817
b110001 #
#818
b110010 #
#819
b110011 #
#820
b110100 #
#821
b110101 #
#822
b110110 #
#823
b110111 #
#824
b111000 #
#825
b111001 #
#826
b111010 #
#827
b111011 #
#828
b111100 #
#829
b111101 #
#830
b111110 #
#831
b111111 #
#832
b1000000 #
#833
b1000001 #
#834
b1000010 #
#835
b1000011 #
#836
b1000100 #
#837
b1000101 #
#838
b1000110 #
#839
b1000111 #
#840
b1001000 #
#841
b1001001 #
#842
b1001010 #
#843
b1001011 #
#844
b1001100 #
#845
b1001101 #
#846
b1001110 #
#847
b1001111 #
#848
b1010000 #
#849
b1010001 #
#850
b1010010 #
#851
b1010011 #
#852
b1010100 #
#853
b1010101 #
#854
b1010110 #
#855
b1010111 #
#856
b1011000 #
#857
b1011001 #
#858
b1011010 #
#859
b1011011 #
#860
b1011100 #
#861
b1011101 #
#862
b1011110 #
#863
b1011111 #
#864
b1100000 #
#865
b1100001 #
#866
b1100010 #
#867
b1100011 #
#868
b1100100 #
#869
b1100101 #
#870
b1100110 #
#871
b1100111 #
#872
b1101000 #
#873
b1101001 #
#874
b1101010 #
#875
b1101011 #
#876
b1101100 #
#877
b1101101 #
#878
b1101110 #
#879
b1101111 #
#880
b1110000 #
#881
b1110001 #
#882
b1110010 #
#883
b1110011 #
#884
b1110100 #
#885
b1110101 #
#886
b1110110 #
#887
b1110111 #
#888
b1111000 #
#889
b1111001 #
#890
b1111010 #
#891
b1111011 #
#892
b1111100 #
#893
b1111101 #
#894
b1111110 #
#895
b1111111 #
#896
b10000000 #
#897
b10000001 #
#898
b10000010 #
#899
b10000011 #
#900
b10000100 #
#901
b10000101 #
#902
b10000110 #
#903
b10000111 #
#904
b10001000 #
#905
b10001001 #
#906
b10001010 #
#907
b10001011 #
#908
b10001100 #
#909
b10001101 #
#910
b10001110 #
#911
b10001111 #
#912
b10010000 #
#913
b10010001 #
#914
b10010010 #
#915
b10010011 #
#916
b10010100 #
#917
b10010101 #
#918
b10010110 #
#919
b10010111 #
#920
b10011000 #
#921
b10011001 #
#922
b10011010 #
#923
b10011011 #
#924
b10011100 #
#925
b10011101 #
#926
b10011110 #
#927
b10011111 #
#928
b10100000 #
#929
b10100001 #
#930
b10100010 #
#931
b10100011 #
#932
b10100100 #
#933
b10100101 #
#934
b10100110 #
#935
b10100111 #
#936
b10101000 #
#937
b10101001 #
#938
b10101010 #
#939
b10101011 #
#940
b10101100 #
#941
b10101101 #
#942
b10101110 #
#943
b10101111 #
#944
b10110000 #
#945
b10110001 #
#946
b10110010 #
#947
b10110011 #
#948
b10110100 #
#949
b10110101 #
#950
b10110110 #
#951
b10110111 #
#952
b10111000 #
#953
b10111001 #
#954
b10111010 #
#955
b10111011 #
#956
b10111100 #
#957
b10111101 #
#958
b10111110 #
#959
b10111111 #
#960
b11000000 #
#961
b11000001 #
#962
b11000010 #
#963
b11000011 #
#964
b11000100 #
#965
b11000101 #
#966
b11000110 #
#967
b11000111 #
#968
b11001000 #
#969
b11001001 #
#970
b11001010 #
#971
b11001011 #
#972
b11001100 #
#973
b11001101 #
#974
b11001110 #
#975
b11001111 #
#976
b11010000 #
#977
b11010001 #
#978
b11010010 #
#979
b11010011 #
#980
b11010100 #
#981
b11010101 #
#982
b11010110 #
#983
b11010111 #
#984
b11011000 #
#985
b11011001 #
#986
b11011010 #
#987
b11011011 #
#988
b11011100 #
#989
b11011101 #
#990
b11011110 #
#991
b11011111 #
#992
b11100000 #
#993
b11100001 #
#994
b11100010 #
#995
b11100011 #
#996
b11100100 #
#997
b11100101 #
#998
b11100110 #
#999
b11100111 #
#1000
b11101000 #
#1001
b11101001 #
#1002
b11101010 #
#1003
b11101011 #
#1004
b11101100 #
#1005
b11101101 #
#1006
b11101110 #
#1007
b11101111 #
#1008
b11110000 #
#1009
b11110001 #
#1010
b11110010 #
#1011
b11110011 #
#1012
b11110100 #
#1013
b11110101 #
#1014
b11110110 #
#1015
b11110111 #
#1016
b11111000 #
#1017
b11111001 #
#1018
b11111010 #
#1019
b11111011 #
#1020
b11111100 #
#1021
b11111101 #
#1022
b11111110 #
#1023
b11111111 #
